<svg width="274" height="15" viewBox="0 0 274 15" fill="none" xmlns="http://www.w3.org/2000/svg">
<path fill-rule="evenodd" clip-rule="evenodd" d="M272.238 8.90703C218.268 1.05767 163.385 5.39925 109.279 3.98596C73.5008 3.04038 37.7204 0.762796 1.96852 0.000228063C0.896628 -0.0201071 0.0150621 1.32197 0.000174667 3.00979C-0.0140655 4.69761 0.844218 6.08044 1.91547 6.10077C37.6635 6.86334 73.4399 9.14092 109.214 10.0865C163.223 11.4998 218.002 7.14802 271.875 14.9872C272.943 15.1397 273.888 13.9095 273.992 12.2318C274.089 10.5542 273.299 9.06971 272.238 8.90703Z" fill="#f4cb46"/>
</svg>
